useful ggplot snippets
…
count: false
 
### A TidyTuesday dataset
.panel1-mobile-viz-1-user[

```r
*mobile
```
]
 
.panel2-mobile-viz-1-user[

```
# A tibble: 204 x 5
   entity              gdp_per_cap mobile_subs total_pop continent
   <chr>                     <dbl>       <dbl>     <dbl> <chr>    
 1 Afghanistan               1614.       0.355  31411743 Asia     
 2 Albania                   9927.       0.916   3204284 Europe   
 3 Algeria                  12871.       0.908  35468208 Africa   
 4 Andorra                     NA        0.776     84864 Europe   
 5 Angola                    5898.       0.402  19081912 Africa   
 6 Antigua and Barbuda      19213.       1.77      88710 Americas 
 7 Argentina                18712.       1.38   40412376 Americas 
 8 Armenia                   6703.       1.34    3092072 Asia     
 9 Aruba                       NA        1.30     107488 Americas 
10 Australia                41464.       1.02   22268384 Oceania  
# … with 194 more rows
```
…
